<?xml version="1.0" encoding="UTF-8" standalone="no"?><svg xmlns="http://www.w3.org/2000/svg" xmlns:xlink="http://www.w3.org/1999/xlink" contentScriptType="application/ecmascript" contentStyleType="text/css" height="200px" preserveAspectRatio="none" style="width:639px;height:200px;" version="1.1" viewBox="0 0 639 200" width="639px" zoomAndPan="magnify"><defs><filter height="300%" id="f77q645wk9hpf" width="300%" x="-1" y="-1"><feGaussianBlur result="blurOut" stdDeviation="2.0"/><feColorMatrix in="blurOut" result="blurOut2" type="matrix" values="0 0 0 0 0 0 0 0 0 0 0 0 0 0 0 0 0 0 .4 0"/><feOffset dx="4.0" dy="4.0" in="blurOut2" result="blurOut3"/><feBlend in="SourceGraphic" in2="blurOut3" mode="normal"/></filter></defs><g><!--MD5=[7ce1723ddb6e6233854253973eae5a71]
cluster Store--><rect fill="#FFFFFF" filter="url(#f77q645wk9hpf)" height="103" style="stroke:#000000;stroke-width:1.5;" width="127" x="397" y="85"/><text fill="#000000" font-family="sans-serif" font-size="14" font-weight="bold" lengthAdjust="spacing" textLength="44" x="438.5" y="99.9951">Store</text><!--MD5=[5c691934b5633fdd3b98f008c74cebb5]
entity State--><rect fill="#FEFECE" filter="url(#f77q645wk9hpf)" height="36.2969" style="stroke:#000000;stroke-width:1.5;" width="60" x="440" y="128"/><text fill="#000000" font-family="sans-serif" font-size="14" lengthAdjust="spacing" textLength="40" x="450" y="150.9951">State</text><!--MD5=[854490cbfb8eedee4432d73740ee6d75]
entity View--><rect fill="#FEFECE" filter="url(#f77q645wk9hpf)" height="36.2969" style="stroke:#000000;stroke-width:1.5;" width="54" x="213" y="128"/><text fill="#000000" font-family="sans-serif" font-size="14" lengthAdjust="spacing" textLength="34" x="223" y="150.9951">View</text><!--MD5=[a096b82a31643400ba33981c0f5b0661]
entity Action--><rect fill="#FEFECE" filter="url(#f77q645wk9hpf)" height="36.2969" style="stroke:#000000;stroke-width:1.5;" width="67" x="302.5" y="128"/><text fill="#000000" font-family="sans-serif" font-size="14" lengthAdjust="spacing" textLength="47" x="312.5" y="150.9951">Action</text><!--MD5=[d369cd553baae2856cffe25525793eb8]
entity Reducer--><rect fill="#FEFECE" filter="url(#f77q645wk9hpf)" height="36.2969" style="stroke:#000000;stroke-width:1.5;" width="79" x="548.5" y="128"/><text fill="#000000" font-family="sans-serif" font-size="14" lengthAdjust="spacing" textLength="59" x="558.5" y="150.9951">Reducer</text><path d="M6,6 L6,61.3984 A0,0 0 0 0 6,61.3984 L236,61.3984 L240,127.7875 L244,61.3984 L474,61.3984 A0,0 0 0 0 474,61.3984 L474,16 L464,6 L6,6 A0,0 0 0 0 6,6 " fill="#FBFB77" filter="url(#f77q645wk9hpf)" style="stroke:#A80036;stroke-width:1.0;"/><path d="M464,6 L464,16 L474,16 L464,6 " fill="#FBFB77" style="stroke:#A80036;stroke-width:1.0;"/><text fill="#000000" font-family="sans-serif" font-size="13" lengthAdjust="spacing" textLength="351" x="12" y="23.0669">StateからViewを構築する処理を時前で書く必要があった。</text><text fill="#000000" font-family="sans-serif" font-size="13" lengthAdjust="spacing" textLength="447" x="12" y="38.1997">パフォーマンスを意識して更新されたデータが影響するViewだけを再構築…</text><text fill="#000000" font-family="sans-serif" font-size="13" lengthAdjust="spacing" textLength="221" x="12" y="53.3325">ということをやりだすとかなり大変；</text><!--MD5=[ae1eb4a19ff42640884ce2c7f44f4b6d]
link View to Action--><path d="M267.375,146 C277.343,146 287.311,146 297.279,146 " fill="none" id="View-to-Action" style="stroke:#A80036;stroke-width:1.0;"/><polygon fill="#A80036" points="302.492,146,293.492,142,297.492,146,293.492,150,302.492,146" style="stroke:#A80036;stroke-width:1.0;"/><!--MD5=[2bf099a4d10027ac49cea77fa680372e]
link Action to Store--><path d="M369.691,146 C375.484,146 381.277,146 387.0699,146 C389.9663,146 392.8627,146 395.7591,146 C396.1211,146 396.4832,146 396.8452,146 C396.8905,146 396.9357,146 396.981,146 " fill="none" id="Action-to-Store" style="stroke:#A80036;stroke-width:1.0;"/><polygon fill="#A80036" points="396.981,146,387.981,142,391.981,146,387.981,150,396.981,146" style="stroke:#A80036;stroke-width:1.0;"/><!--MD5=[aaf50fa9634542a7c10b65d18b1ab767]
link Store to View--><path d="M397.7215,84.8864 C397.6148,84.6509 397.5069,84.416 397.3976,84.1819 C396.5233,82.3087 395.5632,80.4816 394.5094,78.7166 C392.4017,75.1866 389.9194,71.905 387,69 C381.345,63.372 377.428,65.895 369.5,65 C339.91,61.661 332.09,61.661 302.5,65 C294.572,65.895 291.431,64.278 285,69 C266.747,82.402 254.663,105.621 247.656,123.0674 " fill="none" id="Store-to-View" style="stroke:#A80036;stroke-width:1.0;"/><polygon fill="#A80036" points="245.814,127.822,252.7962,120.8758,247.621,123.1599,245.3369,117.9847,245.814,127.822" style="stroke:#A80036;stroke-width:1.0;"/><!--MD5=[bdc70829810fab2ed3eb4de26a150350]
link State to Reducer--><path d="M500.422,146 C514.64,146 528.859,146 543.078,146 " fill="none" id="State-to-Reducer" style="stroke:#A80036;stroke-width:1.0;"/><polygon fill="#A80036" points="548.316,146,539.316,142,543.316,146,539.316,150,548.316,146" style="stroke:#A80036;stroke-width:1.0;"/><!--MD5=[f405d43cf9b6b469d5125e6ab08623d9]
link Reducer to State--><path d="M548.316,146 C534.098,146 519.879,146 505.66,146 " fill="none" id="Reducer-to-State" style="stroke:#A80036;stroke-width:1.0;"/><polygon fill="#A80036" points="500.422,146,509.422,150,505.422,146,509.422,142,500.422,146" style="stroke:#A80036;stroke-width:1.0;"/><!--MD5=[2d67b15cd4f5cd41e2cb62dd7f29aee7]
@startuml
skinparam componentStyle rectangle
component Store {
  component State
}
component View
component Action
component Reducer
View -> Action
Action -> Store
Store -> View
State -> Reducer
Reducer -> State

note top of [View]
StateからViewを構築する処理を時前で書く必要があった。
パフォーマンスを意識して更新されたデータが影響するViewだけを再構築…
ということをやりだすとかなり大変；
end note
@enduml

PlantUML version 1.2021.2beta9(Unknown compile time)
(GPL source distribution)
Java Runtime: Java(TM) SE Runtime Environment
JVM: Java HotSpot(TM) 64-Bit Server VM
Default Encoding: UTF-8
Language: en
Country: US
--></g></svg>