<?xml version="1.0" encoding="UTF-8" standalone="no"?><svg xmlns="http://www.w3.org/2000/svg" xmlns:xlink="http://www.w3.org/1999/xlink" contentScriptType="application/ecmascript" contentStyleType="text/css" height="181px" preserveAspectRatio="none" style="width:433px;height:181px;" version="1.1" viewBox="0 0 433 181" width="433px" zoomAndPan="magnify"><defs><filter height="300%" id="f12wof4pv52d96" width="300%" x="-1" y="-1"><feGaussianBlur result="blurOut" stdDeviation="2.0"/><feColorMatrix in="blurOut" result="blurOut2" type="matrix" values="0 0 0 0 0 0 0 0 0 0 0 0 0 0 0 0 0 0 .4 0"/><feOffset dx="4.0" dy="4.0" in="blurOut2" result="blurOut3"/><feBlend in="SourceGraphic" in2="blurOut3" mode="normal"/></filter></defs><g><!--MD5=[7ce1723ddb6e6233854253973eae5a71]
cluster Store--><rect fill="#FFFFFF" filter="url(#f12wof4pv52d96)" height="103" style="stroke:#000000;stroke-width:1.5;" width="127" x="191" y="66.831"/><text fill="#000000" font-family="sans-serif" font-size="14" font-weight="bold" lengthAdjust="spacing" textLength="44" x="232.5" y="81.8261">Store</text><!--MD5=[5c691934b5633fdd3b98f008c74cebb5]
entity State--><rect fill="#FEFECE" filter="url(#f12wof4pv52d96)" height="36.2969" style="stroke:#000000;stroke-width:1.5;" width="60" x="234" y="109.831"/><text fill="#000000" font-family="sans-serif" font-size="14" lengthAdjust="spacing" textLength="40" x="244" y="132.8261">State</text><!--MD5=[854490cbfb8eedee4432d73740ee6d75]
entity View--><rect fill="#FEFECE" filter="url(#f12wof4pv52d96)" height="36.2969" style="stroke:#000000;stroke-width:1.5;" width="54" x="7" y="109.831"/><text fill="#000000" font-family="sans-serif" font-size="14" lengthAdjust="spacing" textLength="34" x="17" y="132.8261">View</text><!--MD5=[a096b82a31643400ba33981c0f5b0661]
entity Action--><rect fill="#FEFECE" filter="url(#f12wof4pv52d96)" height="36.2969" style="stroke:#000000;stroke-width:1.5;" width="67" x="96.5" y="109.831"/><text fill="#000000" font-family="sans-serif" font-size="14" lengthAdjust="spacing" textLength="47" x="106.5" y="132.8261">Action</text><!--MD5=[d369cd553baae2856cffe25525793eb8]
entity Reducer--><rect fill="#FEFECE" filter="url(#f12wof4pv52d96)" height="36.2969" style="stroke:#000000;stroke-width:1.5;" width="79" x="342.5" y="109.831"/><text fill="#000000" font-family="sans-serif" font-size="14" lengthAdjust="spacing" textLength="59" x="352.5" y="132.8261">Reducer</text><!--MD5=[ae1eb4a19ff42640884ce2c7f44f4b6d]
link View to Action--><path d="M61.375,127.831 C71.343,127.831 81.311,127.831 91.2791,127.831 " fill="none" id="View-to-Action" style="stroke:#A80036;stroke-width:1.0;"/><polygon fill="#A80036" points="96.4917,127.831,87.4917,123.831,91.4917,127.831,87.4917,131.831,96.4917,127.831" style="stroke:#A80036;stroke-width:1.0;"/><!--MD5=[2bf099a4d10027ac49cea77fa680372e]
link Action to Store--><path d="M163.691,127.831 C169.484,127.831 175.277,127.831 181.0699,127.831 C183.9663,127.831 186.8627,127.831 189.7591,127.831 C190.1211,127.831 190.4832,127.831 190.8452,127.831 C190.8905,127.831 190.9357,127.831 190.981,127.831 " fill="none" id="Action-to-Store" style="stroke:#A80036;stroke-width:1.0;"/><polygon fill="#A80036" points="190.981,127.831,181.981,123.831,185.981,127.831,181.981,131.831,190.981,127.831" style="stroke:#A80036;stroke-width:1.0;"/><!--MD5=[aaf50fa9634542a7c10b65d18b1ab767]
link Store to View--><path d="M194.0128,66.3417 C193.9162,65.9824 193.818,65.6234 193.7182,65.2646 C193.5186,64.5471 193.3125,63.8308 193.0997,63.1161 C191.3973,57.3984 189.2664,51.7852 186.6067,46.5118 C181.2874,35.965 173.8528,26.7772 163.5,20.831 C137.678,6 122.326,6.007 96.5,20.831 C65.1893,38.803 48.0716,79.191 39.9936,104.8847 " fill="none" id="Store-to-View" style="stroke:#A80036;stroke-width:1.0;"/><polygon fill="#A80036" points="38.4971,109.8165,44.9383,102.3659,39.9491,105.032,37.2831,100.0428,38.4971,109.8165" style="stroke:#A80036;stroke-width:1.0;"/><!--MD5=[bdc70829810fab2ed3eb4de26a150350]
link State to Reducer--><path d="M294.422,127.831 C308.64,127.831 322.859,127.831 337.078,127.831 " fill="none" id="State-to-Reducer" style="stroke:#A80036;stroke-width:1.0;"/><polygon fill="#A80036" points="342.316,127.831,333.316,123.831,337.316,127.831,333.316,131.831,342.316,127.831" style="stroke:#A80036;stroke-width:1.0;"/><!--MD5=[f405d43cf9b6b469d5125e6ab08623d9]
link Reducer to State--><path d="M342.316,127.831 C328.098,127.831 313.879,127.831 299.66,127.831 " fill="none" id="Reducer-to-State" style="stroke:#A80036;stroke-width:1.0;"/><polygon fill="#A80036" points="294.422,127.831,303.422,131.831,299.422,127.831,303.422,123.831,294.422,127.831" style="stroke:#A80036;stroke-width:1.0;"/><!--MD5=[b4e4f0e2b020851ca55ec9dbe0a8de5e]
@startuml
skinparam componentStyle rectangle
component Store {
  component State
}
component View
component Action
component Reducer
View -> Action
Action -> Store
Store -> View
State -> Reducer
Reducer -> State
@enduml

PlantUML version 1.2021.2beta9(Unknown compile time)
(GPL source distribution)
Java Runtime: Java(TM) SE Runtime Environment
JVM: Java HotSpot(TM) 64-Bit Server VM
Default Encoding: UTF-8
Language: en
Country: US
--></g></svg>